Varmint Detector/libraries/RFM69/untitled.vcd
$timescale 1 ns $end
$scope module top $end
$var wire 1 ! MOSI $end
$var wire 1 " MISO $end
$var wire 1 # CLK $end
$var wire 1 $ Enable $end
$var wire 1 % SDO $end
$upscope $end
$enddefinitions $end
#0
0!
0"
0#
0$
0%
#1112551125
1$
#1112581125
1#
#1112605000
1!
#1118533625
1"
#1178637125
0#
#1178637375
0!
#1178653250
0"
0$
#1178655500
1!
#1178656500
1#
#1178657250
0!
0#
#1178658000
1#
#1178658750
1!
0#
#1178659500
1#
#1178660125
0#
#1178660250
0!
#1178660875
1#
#1178661625
1!
0#
#1178662375
1#
#1178663125
0#
#1178663875
1#
#1178664625
0#
#1178665250
1#
#1178666000
0#
#1178666750
1#
#1178667500
0!
0#
#1178669625
1!
#1178670625
1#
#1178671375
0!
0#
#1178672125
1#
#1178672875
1!
0#
#1178673625
1#
#1178674250
0#
#1178674375
0!
#1178675000
1#
#1178675750
1!
0#
#1178676500
1#
#1178677250
0!
0#
#1178678000
1#
#1178678625
0#
#1178678750
1!
#1178679375
1#
#1178680125
0!
0#
#1178680875
1#
#1178681625
0#
#1178693250
1$
#1178708000
0$
#1178711125
1#
#1178711875
0#
#1178712625
1#
#1178713375
1!
0#
#1178714125
1#
#1178714875
0!
0#
#1178715500
1#
#1178716250
1!
0#
#1178717000
1#
#1178717750
0#
#1178718500
1#
#1178719250
0#
#1178720000
1#
#1178720625
0#
#1178721375
1#
#1178722125
0!
1"
0#
#1178725000
1#
#1178725750
0"
0#
#1178726500
1#
#1178727250
1"
0#
#1178728000
1#
#1178728750
0"
0#
#1178729375
1#
#1178730125
1"
0#
#1178730875
1#
#1178731625
0"
0#
#1178732375
1#
#1178733125
1"
0#
#1178733875
1#
#1178734500
0"
0#
#1178735250
1#
#1178736000
1!
0#
#1178746500
1$
#1178766875
0$
#1178770250
1#
#1178770875
0#
#1178771000
0!
#1178771625
1#
#1178772375
1!
0#
#1178773125
1#
#1178773875
0!
0#
#1178774625
1#
#1178775250
0#
#1178775375
1!
#1178776000
1#
#1178776750
0#
#1178777500
1#
#1178778250
0#
#1178779000
1#
#1178779750
0#
#1178780375
1#
#1178781125
0!
1"
0#
#1178784375
1#
#1178785000
0"
0#
#1178785125
1!
#1178785750
1#
#1178786500
0!
1"
0#
#1178787250
1#
#1178788000
1!
0"
0#
#1178788750
1#
#1178789375
0#
#1178789500
0!
1"
#1178790125
1#
#1178790875
1!
0"
0#
#1178791625
1#
#1178792375
0!
1"
0#
#1178793125
1#
#1178793750
0#
#1178793875
1!
0"
#1178794500
1#
#1178795250
0#
#1178807000
1$
#1178821625
0$
#1178823875
0!
#1178824875
1#
#1178825625
0#
#1178826250
1#
#1178827000
1!
0#
#1178827750
1#
#1178828500
0!
0#
#1178829250
1#
#1178830000
1!
0#
#1178830625
1#
#1178831375
0#
#1178832125
1#
#1178832875
0#
#1178833625
1#
#1178834375
0#
#1178835000
1#
#1178835750
0!
0#
#1178838750
1#
#1178839500
1"
0#
#1178840125
1#
#1178840875
0"
0#
#1178841625
1#
#1178842375
1"
0#
#1178843125
1#
#1178843875
0"
0#
#1178844500
1#
#1178845250
1"
0#
#1178846000
1#
#1178846750
0"
0#
#1178847500
1#
#1178848250
1"
0#
#1178848875
1#
#1178849625
0"
0#
#1178860125
1$
#1178879000
0$
#1178881250
1!
#1178882250
1#
#1178883000
0!
0#
#1178883750
1#
#1178884500
0#
#1178885250
1#
#1178885875
0#
#1178886625
1#
#1178887375
0#
#1178888125
1#
#1178888875
0#
#1178889625
1#
#1178890250
0#
#1178891000
1#
#1178891750
1!
0#
#1178892500
1#
#1178893250
0!
0#
#1178896375
1#
#1178897125
0#
#1178897875
1#
#1178898625
0#
#1178899250
1#
#1178900000
0#
#1178900750
1#
#1178901500
0#
#1178902250
1#
#1178903000
1!
1"
0#
#1178903750
1#
#1178904375
0"
0#
#1178904500
0!
#1178905125
1#
#1178905875
0#
#1178906625
1#
#1178907375
0#
#1178919000
1$
#1178935500
0$
#1178937750
1!
#1178938750
1#
#1178939500
0!
0#
#1178940250
1#
#1178940875
0#
#1178941625
1#
#1178942375
0#
#1178943125
1#
#1178943875
0#
#1178944625
1#
#1178945250
0#
#1178946000
1#
#1178946750
1!
0#
#1178947500
1#
#1178948250
0!
0#
#1178949000
1#
#1178949625
0#
#1178952875
1#
#1178953625
0#
#1178954250
1#
#1178955000
0#
#1178955750
1#
#1178956500
0#
#1178957250
1#
#1178958000
0#
#1178958625
1#
#1178959375
0#
#1178960125
1#
#1178960875
0#
#1178961625
1#
#1178962375
0#
#1178963125
1#
#1178963750
0#
#1178975500
1$
#1178991875
0$
#1178994250
1!
#1178995125
1#
#1178995875
0!
0#
#1178996625
1#
#1178997375
0#
#1178998125
1#
#1178998875
0#
#1178999625
1#
#1179000250
0#
#1179001000
1#
#1179001750
0#
#1179002500
1#
#1179003250
1!
0#
#1179004000
1#
#1179004625
0#
#1179005375
1#
#1179006125
0!
0#
#1179009250
1#
#1179010000
0#
#1179010750
1#
#1179011500
0#
#1179012250
1#
#1179013000
1"
0#
#1179013625
1#
#1179014375
0#
#1179015125
1#
#1179015875
0"
0#
#1179016625
1#
#1179017375
1!
1"
0#
#1179018000
1#
#1179018750
0!
0"
0#
#1179019500
1#
#1179020250
0#
#1179031875
1$
#1179048375
0$
#1179050625
1!
#1179051625
1#
#1179052375
0!
0#
#1179053125
1#
#1179053875
0#
#1179054500
1#
#1179055250
0#
#1179056000
1#
#1179056750
0#
#1179057500
1#
#1179058250
1!
0#
#1179058875
1#
#1179059625
0!
0#
#1179060375
1#
#1179061125
0#
#1179061875
1#
#1179062625
0#
#1179065750
1#
#1179066500
1!
0#
#1179067250
1#
#1179067875
0#
#1179068000
0!
#1179068625
1#
#1179069375
0#
#1179070125
1#
#1179070875
1"
0#
#1179071625
1#
#1179072375
0"
0#
#1179073000
1#
#1179073750
1"
0#
#1179074500
1#
#1179075250
0#
#1179076000
1#
#1179076750
0"
0#
#1179088375
1$
#1179104750
0$
#1179107125
1!
#1179108125
1#
#1179108750
0#
#1179108875
0!
#1179109500
1#
#1179110250
0#
#1179111000
1#
#1179111750
0#
#1179112500
1#
#1179113250
0#
#1179113875
1#
#1179114625
1!
0#
#1179115375
1#
#1179116125
0!
0#
#1179116875
1#
#1179117625
1!
0#
#1179118250
1#
#1179119000
0!
0#
#1179122250
1#
#1179122875
0#
#1179123625
1#
#1179124375
0#
#1179125125
1#
#1179125875
0#
#1179126625
1#
#1179127250
0#
#1179128000
1#
#1179128750
0#
#1179129500
1#
#1179130250
1!
0#
#1179131000
1#
#1179131750
0#
#1179132375
1#
#1179133125
0!
0#
#1179144875
1$
#1179161250
0$
#1179163625
1!
#1179164500
1#
#1179165250
0!
0#
#1179166000
1#
#1179166750
0#
#1179167500
1#
#1179168250
0#
#1179168875
1#
#1179169625
0#
#1179170375
1#
#1179171125
1!
0#
#1179171875
1#
#1179172625
0#
#1179173250
1#
#1179174000
0!
0#
#1179174750
1#
#1179175500
0#
#1179178625
1#
#1179179375
1"
0#
#1179180125
1#
#1179180875
1!
0"
0#
#1179181625
1#
#1179182250
0#
#1179182375
1"
#1179183000
1#
#1179183750
0!
0"
0#
#1179184500
1#
#1179185250
0#
#1179186000
1#
#1179186750
1!
1"
0#
#1179187375
1#
#1179188125
0"
0#
#1179188875
1#
#1179189625
0!
1"
0#
#1179201250
1$
#1179217750
0"
0$
#1179220000
1!
#1179221000
1#
#1179221750
0!
0#
#1179222500
1#
#1179223125
0#
#1179223875
1#
#1179224625
0#
#1179225375
1#
#1179226125
0#
#1179226875
1#
#1179227625
1!
0#
#1179228250
1#
#1179229000
0#
#1179229750
1#
#1179230500
0#
#1179231250
1#
#1179232000
0!
1"
0#
#1179235125
1#
#1179235875
1!
0#
#1179236500
1#
#1179237250
0#
#1179238000
1#
#1179238750
0!
0"
0#
#1179239500
1#
#1179240250
1!
0#
#1179241000
1#
#1179241625
0#
#1179241750
1"
#1179242375
1#
#1179243125
0!
0"
0#
#1179243875
1#
#1179244625
0#
#1179245375
1#
#1179246000
0#
#1179246125
1!
1"
#1179257750
1$
#1179274125
0"
0$
#1179277500
1#
#1179278125
0#
#1179278250
0!
#1179278875
1#
#1179279625
0#
#1179280375
1#
#1179281125
0#
#1179281875
1#
#1179282500
0#
#1179282625
1!
#1179283250
1#
#1179284000
0!
0#
#1179284750
1#
#1179285500
0#
#1179286250
1#
#1179286875
0#
#1179287625
1#
#1179288375
1"
0#
#1179291500
1#
#1179292250
1!
0#
#1179293000
1#
#1179293750
0!
0"
0#
#1179294500
1#
#1179295250
0#
#1179295875
1#
#1179296625
0#
#1179297375
1#
#1179298125
0#
#1179298875
1#
#1179299625
0#
#1179300375
1#
#1179301000
0#
#1179301750
1#
#1179302500
1!
0#
#1179314125
1$
#1179330625
0$
#1179333875
1#
#1179334625
0!
0#
#1179335375
1#
#1179336125
0#
#1179336875
1#
#1179337500
0#
#1179338250
1#
#1179339000
1!
0#
#1179339750
1#
#1179340500
0!
0#
#1179341250
1#
#1179341875
0#
#1179342625
1#
#1179343375
1!
0#
#1179344125
1#
#1179344875
0!
0#
#1179348000
1#
#1179348750
0#
#1179349500
1#
#1179350250
0#
#1179350875
1#
#1179351625
0#
#1179352375
1#
#1179353125
0#
#1179353875
1#
#1179354625
0#
#1179355375
1#
#1179356000
0#
#1179356750
1#
#1179357500
0#
#1179358250
1#
#1179359000
0#
#1179370625
1$
#1179387125
0$
#1179389375
1!
#1179390375
1#
#1179391125
0!
0#
#1179391875
1#
#1179392500
0#
#1179393250
1#
#1179394000
1!
0#
#1179394750
1#
#1179395500
0#
#1179396250
1#
#1179396875
0#
#1179397000
0!
#1179397625
1#
#1179398375
0#
#1179399125
1#
#1179399875
1!
0#
#1179400625
1#
#1179401250
0#
#1179401375
0!
1"
#1179404500
1#
#1179405250
1!
0"
0#
#1179405875
1#
#1179406625
0!
0#
#1179407375
1#
#1179408125
0#
#1179408875
1#
#1179409625
0#
#1179410250
1#
#1179411000
1"
0#
#1179411750
1#
#1179412500
1!
0#
#1179413250
1#
#1179414000
0!
0"
0#
#1179414750
1#
#1179415375
0#
#1179415500
1!
1"
#1179427125
1$
#1179443500
0"
0$
#1179446875
1#
#1179447500
0#
#1179447625
0!
#1179448250
1#
#1179449000
1!
0#
#1179449750
1#
#1179450500
0!
0#
#1179451250
1#
#1179451875
0#
#1179452625
1#
#1179453375
1!
0#
#1179454125
1#
#1179454875
0!
0#
#1179455625
1#
#1179456250
0#
#1179456375
1!
#1179457000
1#
#1179457750
0!
0#
#1179460875
1#
#1179461625
1!
0#
#1179462375
1#
#1179463125
0!
0#
#1179463875
1#
#1179464625
0#
#1179465250
1#
#1179466000
0#
#1179466750
1#
#1179467500
0#
#1179468250
1#
#1179469000
0#
#1179469625
1#
#1179470375
0#
#1179471125
1#
#1179471875
0#
#1179483500
1$
#1179500000
0$
#1179502250
1!
#1179503250
1#
#1179504000
0!
0#
#1179504750
1#
#1179505500
1!
0#
#1179506125
1#
#1179506875
0!
0#
#1179507625
1#
#1179508375
0#
#1179509125
1#
#1179509875
1!
0#
#1179510500
1#
#1179511250
0#
#1179512000
1#
#1179512750
0!
0#
#1179513500
1#
#1179514250
0#
#1179517375
1#
#1179518125
0#
#1179518875
1#
#1179519500
0#
#1179520250
1#
#1179521000
0#
#1179521750
1#
#1179522500
0#
#1179523250
1#
#1179523875
0#
#1179524000
1!
1"
#1179524625
1#
#1179525375
0"
0#
#1179526125
1#
#1179526875
1"
0#
#1179527625
1#
#1179528250
0#
#1179528375
0!
#1179540000
1$
#1179556375
0"
0$
#1179558750
1!
#1179559750
1#
#1179560375
0#
#1179560500
0!
#1179561125
1#
#1179561875
1!
0#
#1179562625
1#
#1179563375
0!
0#
#1179564125
1#
#1179564750
0#
#1179564875
1!
#1179565500
1#
#1179566250
0!
0#
#1179567000
1#
#1179567750
0#
#1179568500
1#
#1179569125
0#
#1179569875
1#
#1179570625
0#
#1179573750
1#
#1179574500
0#
#1179575250
1#
#1179576000
0#
#1179576750
1#
#1179577500
1!
0#
#1179578250
1#
#1179578875
0#
#1179579000
0!
#1179579625
1#
#1179580375
0#
#1179581125
1#
#1179581875
0#
#1179582625
1#
#1179583250
0#
#1179584000
1#
#1179584750
1"
0#
#1179596500
1$
#1179612875
0"
0$
#1179615125
1!
#1179616125
1#
#1179616875
0!
0#
#1179617625
1#
#1179618375
1!
0#
#1179619125
1#
#1179619750
0#
#1179619875
0!
#1179620500
1#
#1179621250
1!
0#
#1179622000
1#
#1179622750
0!
0#
#1179623500
1#
#1179624125
0#
#1179624875
1#
#1179625625
1!
0#
#1179626375
1#
#1179627125
0!
1"
0#
#1179629250
1!
#1179630250
1#
#1179631000
0#
#1179631750
1#
#1179632500
0!
0#
#1179633125
1#
#1179633875
1!
0#
#1179634625
1#
#1179635375
0#
#1179636125
1#
#1179636875
0#
#1179637500
1#
#1179638250
0!
0#
#1179639000
1#
#1179639750
0#
#1179640500
1#
#1179641250
1!
0"
0#
#1179652875
1$
#1179669250
0$
#1179672625
1#
#1179673375
0!
0#
#1179674000
1#
#1179674750
1!
0#
#1179675500
1#
#1179676250
0!
0#
#1179677000
1#
#1179677750
1!
0#
#1179678375
1#
#1179679125
0#
#1179679875
1#
#1179680625
0#
#1179681375
1#
#1179682125
0!
0#
#1179682750
1#
#1179683500
1"
0#
#1179685750
1!
#1179686750
1#
#1179687375
0#
#1179687500
0!
0"
#1179688125
1#
#1179688875
0#
#1179689625
1#
#1179690375
1"
0#
#1179691125
1#
#1179691750
0#
#1179691875
1!
#1179692500
1#
#1179693250
0!
0"
0#
#1179694000
1#
#1179694750
0#
#1179695500
1#
#1179696250
0#
#1179696875
1#
#1179697625
1!
0#
#1179709375
1$
#1179725750
0$
#1179729000
1#
#1179729750
0!
0#
#1179730500
1#
#1179731250
1!
0#
#1179732000
1#
#1179732750
0!
0#
#1179733375
1#
#1179734125
1!
0#
#1179734875
1#
#1179735625
0#
#1179736375
1#
#1179737125
0#
#1179737750
1#
#1179738500
0#
#1179739250
1#
#1179740000
0!
0#
#1179743125
1#
#1179743875
1"
0#
#1179744625
1#
#1179745375
1!
0"
0#
#1179746125
1#
#1179746750
0#
#1179746875
0!
1"
#1179747500
1#
#1179748250
1!
0"
0#
#1179749000
1#
#1179749750
1"
0#
#1179750500
1#
#1179751125
0#
#1179751250
0!
0"
#1179751875
1#
#1179752625
1!
1"
0#
#1179753375
1#
#1179754125
0!
0"
0#
#1179765750
1$
#1179782250
0$
#1179784500
1!
#1179785500
1#
#1179786250
0!
0#
#1179787000
1#
#1179787625
0#
#1179787750
1!
#1179788375
1#
#1179789125
0#
#1179789875
1#
#1179790625
0!
0#
#1179791375
1#
#1179792000
0#
#1179792125
1!
#1179792750
1#
#1179793500
0#
#1179794250
1#
#1179795000
0#
#1179795750
1#
#1179796375
0#
#1179796500
0!
#1179798625
1!
#1179799625
1#
#1179800375
0!
0#
#1179801000
1#
#1179801750
0#
#1179802500
1#
#1179803250
1!
1"
0#
#1179804000
1#
#1179804750
0!
0"
0#
#1179805375
1#
#1179806125
0#
#1179806875
1#
#1179807625
0#
#1179808375
1#
#1179809125
0#
#1179809750
1#
#1179810500
0#
#1179822250
1$
#1179838625
0$
#1179841000
1!
#1179841875
1#
#1179842625
0!
0#
#1179843375
1#
#1179844125
1!
0#
#1179844875
1#
#1179845625
0#
#1179846250
1#
#1179847000
0#
#1179847750
1#
#1179848500
0!
0#
#1179849250
1#
#1179850000
0#
#1179850625
1#
#1179851375
0#
#1179852125
1#
#1179852875
0#
#1179856000
1#
#1179856750
1!
1"
0#
#1179857500
1#
#1179858250
0!
0"
0#
#1179859000
1#
#1179859625
0#
#1179860375
1#
#1179861125
0#
#1179861875
1#
#1179862625
0#
#1179863375
1#
#1179864125
1!
0#
#1179864750
1#
#1179865500
0!
0#
#1179866250
1#
#1179867000
0#
#1179878625
1$
#1179895125
0$
#1179897375
1!
#1179898375
1#
#1179899125
0!
0#
#1179899875
1#
#1179900500
0#
#1179900625
1!
#1179901250
1#
#1179902000
0#
#1179902750
1#
#1179903500
0#
#1179904250
1#
#1179904875
0#
#1179905625
1#
#1179906375
0!
0#
#1179907125
1#
#1179907875
0#
#1179908625
1#
#1179909250
0#
#1179911500
1!
#1179912500
1#
#1179913250
0!
0#
#1179913875
1#
#1179914625
0#
#1179915375
1#
#1179916125
0#
#1179916875
1#
#1179917625
1!
1"
0#
#1179918250
1#
#1179919000
0#
#1179919750
1#
#1179920500
0#
#1179921250
1#
#1179922000
0#
#1179922625
1#
#1179923375
0!
0"
0#
#1179935125
1$
#1179951500
0$
#1179953875
1!
#1179954750
1#
#1179955500
0!
0#
#1179956250
1#
#1179957000
1!
0#
#1179957750
1#
#1179958500
0#
#1179959125
1#
#1179959875
0#
#1179960625
1#
#1179961375
0#
#1179962125
1#
#1179962875
0!
0#
#1179963500
1#
#1179964250
1!
0#
#1179965000
1#
#1179965750
0!
0#
#1179968875
1#
#1179969625
0#
#1179970375
1#
#1179971125
0#
#1179971875
1#
#1179972500
0#
#1179972625
1!
#1179973250
1#
#1179974000
0!
0#
#1179974750
1#
#1179975500
0#
#1179976250
1#
#1179977000
1!
1"
0#
#1179977625
1#
#1179978375
0!
0"
0#
#1179979125
1#
#1179979875
0#
#1179991500
1$
#1180008000
0$
#1180010250
1!
#1180011250
1#
#1180012000
0#
#1180012750
1#
#1180013500
0#
#1180014125
1#
#1180014875
0!
0#
#1180015625
1#
#1180016375
1!
0#
#1180017125
1#
#1180017875
0#
#1180018500
1#
#1180019250
0#
#1180020000
1#
#1180020750
0#
#1180021500
1#
#1180022250
0!
0#
#1180025375
1#
#1180026125
0#
#1180026875
1#
#1180027500
0#
#1180027625
1!
#1180028250
1#
#1180029000
0#
#1180029750
1#
#1180030500
0!
0#
#1180031250
1#
#1180031875
0#
#1180032625
1#
#1180033375
0#
#1180034125
1#
#1180034875
0#
#1180035625
1#
#1180036250
0#
#1180048000
1$
#1180070250
0$
#1180073375
1#
#1180074125
0#
#1180074875
1#
#1180075625
1!
0#
#1180076375
1#
#1180077125
0!
0#
#1180077750
1#
#1180078500
0#
#1180079250
1#
#1180080000
1!
0#
#1180080750
1#
#1180081500
0#
#1180082125
1#
#1180082875
0#
#1180083625
1#
#1180084375
0!
1"
0#
#1180087250
1#
#1180088000
0"
0#
#1180088750
1#
#1180089500
0#
#1180090250
1#
#1180090875
0#
#1180091625
1#
#1180092375
0#
#1180093125
1#
#1180093875
0#
#1180094625
1#
#1180095375
0#
#1180096000
1#
#1180096750
0#
#1180097500
1#
#1180098250
1!
0#
#1180108750
1$
#1180131125
0$
#1180134375
1#
#1180135125
0!
0#
#1180135875
1#
#1180136625
1!
0#
#1180137250
1#
#1180138000
0#
#1180138750
1#
#1180139500
0!
0#
#1180140250
1#
#1180141000
0#
#1180141625
1#
#1180142375
0#
#1180143125
1#
#1180143875
0#
#1180144625
1#
#1180145375
0#
#1180148500
1#
#1180149250
1!
0#
#1180150000
1#
#1180150625
0#
#1180151375
1#
#1180152125
0!
0#
#1180152875
1#
#1180153625
0#
#1180154375
1#
#1180155000
0#
#1180155125
1!
#1180155750
1#
#1180156500
0!
0#
#1180157250
1#
#1180158000
0#
#1180158750
1#
#1180159375
0#
#1180171125
1$
#1180198250
0$
#1180201375
1#
#1180202125
0#
#1180202875
1#
#1180203625
1!
0#
#1180204375
1#
#1180205000
0#
#1180205750
1#
#1180206500
0#
#1180207250
1#
#1180208000
0#
#1180208750
1#
#1180209500
0!
0#
#1180210125
1#
#1180210875
1!
0#
#1180211625
1#
#1180212375
0!
0#
#1180215250
1#
#1180216000
0#
#1180216750
1#
#1180217500
0#
#1180218250
1#
#1180218875
0#
#1180219000
1"
#1180219625
1#
#1180220375
0"
0#
#1180221125
1#
#1180221875
0#
#1180222625
1#
#1180223250
0#
#1180223375
1"
#1180224000
1#
#1180224750
0"
0#
#1180225500
1#
#1180226250
0#
#1180236750
1$
#1180253750
0$
#1180256000
1!
#1180257000
1#
#1180257750
0!
0#
#1180258500
1#
#1180259250
1!
0#
#1180260000
1#
#1180260625
0#
#1180261375
1#
#1180262125
0#
#1180262875
1#
#1180263625
0#
#1180264375
1#
#1180265000
0#
#1180265125
0!
#1180265750
1#
#1180266500
1!
0#
#1180267250
1#
#1180268000
0!
0#
#1180271125
1#
#1180271875
0#
#1180272625
1#
#1180273375
0#
#1180274000
1#
#1180274750
1!
1"
0#
#1180275500
1#
#1180276250
0!
0"
0#
#1180277000
1#
#1180277750
1!
0#
#1180278375
1#
#1180279125
1"
0#
#1180279875
1#
#1180280625
0!
0"
0#
#1180281375
1#
#1180282125
0#
#1180293750
1$
#1180324250
0$
#1180327500
1#
#1180328250
0#
#1180328875
1#
#1180329625
1!
0#
#1180330375
1#
#1180331125
0!
0#
#1180331875
1#
#1180332625
1!
0#
#1180333250
1#
#1180334000
0!
0#
#1180334750
1#
#1180335500
0#
#1180336250
1#
#1180337000
0#
#1180337750
1#
#1180338375
0#
#1180341375
1#
#1180342125
0#
#1180342750
1#
#1180343500
0#
#1180344250
1#
#1180345000
0#
#1180345750
1#
#1180346500
0#
#1180347125
1#
#1180347875
0#
#1180348625
1#
#1180349375
0#
#1180350125
1#
#1180350875
0#
#1180351625
1#
#1180352250
1"
0#
#1180362750
1$
#1180380000
0"
0$
#1180382375
1!
#1180383375
1#
#1180384000
0#
#1180384125
0!
#1180384750
1#
#1180385500
1!
0#
#1180386250
1#
#1180387000
0!
0#
#1180387750
1#
#1180388375
0#
#1180389125
1#
#1180389875
1!
0#
#1180390625
1#
#1180391375
0!
0#
#1180392125
1#
#1180392875
1!
0#
#1180393500
1#
#1180394250
0!
0#
#1180397500
1#
#1180398125
1"
0#
#1180398250
1!
#1180398875
1#
#1180399625
0!
0"
0#
#1180400375
1#
#1180401125
0#
#1180401875
1#
#1180402500
0#
#1180403250
1#
#1180404000
0#
#1180404750
1#
#1180405500
0#
#1180406250
1#
#1180406875
0#
#1180407625
1#
#1180408375
0#
#1180420125
1$
#1180438125
0$
#1180441250
1#
#1180442000
0#
#1180442750
1#
#1180443500
0#
#1180444125
1#
#1180444875
0#
#1180445625
1#
#1180446375
0#
#1180447125
1#
#1180447875
0#
#1180448500
1#
#1180449250
0#
#1180450000
1#
#1180450750
1!
0#
#1180451500
1#
#1180452250
0!
0#
#1180455125
1#
#1180455875
0#
#1180456625
1#
#1180457250
0#
#1180458000
1#
#1180458750
0#
#1180459500
1#
#1180460250
0#
#1180461000
1#
#1180461750
1"
0#
#1180462375
1#
#1180463125
0"
0#
#1180463875
1#
#1180464625
0#
#1180465375
1#
#1180466125
0#
#1180476500
1$
#1180493625
0$
#1180496000
1!
#1180497000
1#
#1180497750
0!
0#
#1180498375
1#
#1180499125
0#
#1180499875
1#
#1180500625
0#
#1180501375
1#
#1180502125
0#
#1180502750
1#
#1180503500
0#
#1180504250
1#
#1180505000
0#
#1180505750
1#
#1180506500
1!
0#
#1180507125
1#
#1180507875
0!
0#
#1180511125
1#
#1180511750
0#
#1180512500
1#
#1180513250
0#
#1180514000
1#
#1180514750
1!
0#
#1180515500
1#
#1180516125
0#
#1180516250
0!
#1180516875
1#
#1180517625
1"
0#
#1180518375
1#
#1180519125
0"
0#
#1180519875
1#
#1180520625
0#
#1180521250
1#
#1180522000
0#
#1180533750
1$
#1180553125
0$
#1180556375
1#
#1180557000
0#
#1180557750
1#
#1180558500
1!
0#
#1180559250
1#
#1180560000
0!
0#
#1180560750
1#
#1180561375
0#
#1180562125
1#
#1180562875
1!
0#
#1180563625
1#
#1180564375
0!
0#
#1180565125
1#
#1180565875
0#
#1180566500
1#
#1180567250
1"
0#
#1180570250
1#
#1180570875
0#
#1180571625
1#
#1180572375
0#
#1180573125
1#
#1180573875
0#
#1180574625
1#
#1180575250
0#
#1180576000
1#
#1180576750
0#
#1180577500
1#
#1180578250
0#
#1180579000
1#
#1180579750
0#
#1180580375
1#
#1180581125
1!
0"
0#
#1180591625
1$
#1180624125
0$
#1180626250
0!
#1180627250
1#
#1180628000
0#
#1180628750
1#
#1180629500
0#
#1180630125
1#
#1180630875
0#
#1180631625
1#
#1180632375
0#
#1180633125
1#
#1180633875
0#
#1180634625
1#
#1180635250
0#
#1180636000
1#
#1180636750
1!
0#
#1180637500
1#
#1180638250
0!
0#
#1180641125
1#
#1180641875
0#
#1180642625
1#
#1180643375
0#
#1180644000
1#
#1180644750
1"
0#
#1180645500
1#
#1180646250
0"
0#
#1180647000
1#
#1180647750
0#
#1180648500
1#
#1180649125
0#
#1180649875
1#
#1180650625
0#
#1180651375
1#
#1180652125
0#
#1180662500
1$
#1180679750
0$
#1180682000
1!
#1180683000
1#
#1180683750
0!
0#
#1180684500
1#
#1180685250
0#
#1180685875
1#
#1180686625
0#
#1180687375
1#
#1180688125
0#
#1180688875
1#
#1180689625
0#
#1180690250
1#
#1180691000
0#
#1180691750
1#
#1180692500
1!
0#
#1180693250
1#
#1180694000
0!
0#
#1180697125
1#
#1180697875
0#
#1180698625
1#
#1180699250
0#
#1180700000
1#
#1180700750
1"
0#
#1180701500
1#
#1180702250
0"
0#
#1180703000
1#
#1180703750
1!
0#
#1180704375
1#
#1180705125
0!
0#
#1180705875
1#
#1180706625
0#
#1180707375
1#
#1180708125
0#
#1180719750
1$
#1180748250
0$
#1180751375
1#
#1180752125
0#
#1180752875
1#
#1180753625
1!
0#
#1180754375
1#
#1180755000
0#
#1180755125
0!
#1180755750
1#
#1180756500
0#
#1180757250
1#
#1180758000
1!
0#
#1180758750
1#
#1180759375
0#
#1180760125
1#
#1180760875
0#
#1180761625
1#
#1180762375
0!
1"
0#
#1180765250
1#
#1180766000
0"
0#
#1180766750
1#
#1180767500
0#
#1180768250
1#
#1180768875
0#
#1180769625
1#
#1180770375
0#
#1180771125
1#
#1180771875
0#
#1180772625
1#
#1180773250
0#
#1180774000
1#
#1180774750
0#
#1180775500
1#
#1180776250
1!
0#
#1180786750
1$
#1180803875
0$
#1180807125
1#
#1180807875
0!
0#
#1180808625
1#
#1180809375
1!
0#
#1180810125
1#
#1180810750
0#
#1180810875
0!
#1180811500
1#
#1180812250
0#
#1180813000
1#
#1180813750
1!
0#
#1180814500
1#
#1180815125
0#
#1180815250
0!
#1180815875
1#
#1180816625
1!
0#
#1180817375
1#
#1180818125
0!
0#
#1180821250
1#
#1180822000
1"
0#
#1180822750
1#
#1180823500
0"
0#
#1180824250
1#
#1180824875
0#
#1180825625
1#
#1180826375
0#
#1180827125
1#
#1180827875
0#
#1180828625
1#
#1180829250
0#
#1180830000
1#
#1180830750
0#
#1180831500
1#
#1180832250
0#
#1180843875
1$
#1180857000
0$
#1180859000
1!
#1180860000
1#
#1180860750
0!
0#
#1180861375
1#
#1180862125
0#
#1180862875
1#
#1180863625
0#
#1180864375
1#
#1180865125
0#
#1180865750
1#
#1180866500
0#
#1180867250
1#
#1180868000
0#
#1180868750
1#
#1180869500
0#
#1180870250
1#
#1180870875
0#
#1180874000
1#
#1180874750
0#
#1180875375
1#
#1180876125
0#
#1180876875
1#
#1180877625
0#
#1180878375
1#
#1180879125
1!
0#
#1180879750
1#
#1180880500
0!
0#
#1180881250
1#
#1180882000
0#
#1180882750
1#
#1180883500
1!
0#
#1180884250
1#
#1180884875
0#
#1180885000
0!
#1180887875
1#
#1180888625
0#
#1180889250
1#
#1180890000
0#
#1180890750
1#
#1180891500
0#
#1180892250
1#
#1180893000
1"
0#
#1180893625
1#
#1180894375
0"
0#
#1180895125
1#
#1180895875
0#
#1180896625
1#
#1180897375
1!
1"
0#
#1180898000
1#
#1180898750
0!
0"
0#
#1180901875
1#
#1180902500
0#
#1180903250
1#
#1180904000
1!
0#
#1180904750
1#
#1180905500
0#
#1180906250
1#
#1180907000
0!
1"
0#
#1180907625
1#
#1180908375
1!
0"
0#
#1180909125
1#
#1180909875
0#
#1180910625
1#
#1180911375
1"
0#
#1180912000
1#
#1180912750
0!
0"
0#
#1180915750
1#
#1180916375
0#
#1180916500
1!
#1180917125
1#
#1180917875
0!
0#
#1180918625
1#
#1180919375
0#
#1180920125
1#
#1180920875
1"
0#
#1180921500
1#
#1180922250
0"
0#
#1180923000
1#
#1180923750
0#
#1180924500
1#
#1180925250
1"
0#
#1180925875
1#
#1180926625
0"
0#
#1180930750
1#
#1180931500
1!
0#
#1180932250
1#
#1180933000
0!
0#
#1180933750
1#
#1180934500
1!
0#
#1180935125
1#
#1180935875
0!
1"
0#
#1180936625
1#
#1180937375
0"
0#
#1180938125
1#
#1180938875
1!
0#
#1180939500
1#
#1180940250
1"
0#
#1180941000
1#
#1180941750
0!
0"
0#
#1180945750
1#
#1180946500
1!
0#
#1180947250
1#
#1180948000
0!
0#
#1180948625
1#
#1180949375
1!
0#
#1180950125
1#
#1180950875
0!
1"
0#
#1180951625
1#
#1180952375
1!
0"
0#
#1180953125
1#
#1180953750
0#
#1180953875
0!
#1180954500
1#
#1180955250
1"
0#
#1180956000
1#
#1180956750
0"
0#
#1180960750
1#
#1180961500
1!
0#
#1180962250
1#
#1180962875
0#
#1180963000
0!
#1180963625
1#
#1180964375
0#
#1180965125
1#
#1180965875
1"
0#
#1180966625
1#
#1180967250
0#
#1180967375
0"
#1180968000
1#
#1180968750
0#
#1180969500
1#
#1180970250
1!
1"
0#
#1180971000
1#
#1180971750
0!
0"
0#
#1180975750
1#
#1180976375
0#
#1180976500
1!
#1180977125
1#
#1180977875
0!
0#
#1180978625
1#
#1180979375
1!
0#
#1180980125
1#
#1180980875
0!
1"
0#
#1180981500
1#
#1180982250
0"
0#
#1180983000
1#
#1180983750
1!
0#
#1180984500
1#
#1180985250
0!
1"
0#
#1180985875
1#
